oct-2
…
── Attaching core tidyverse packages ──────────────────────── tidyverse 2.0.0 ──
✔ dplyr     1.1.4     ✔ readr     2.1.5
✔ forcats   1.0.0     ✔ stringr   1.5.1
✔ ggplot2   4.0.0     ✔ tibble    3.3.0
✔ lubridate 1.9.4     ✔ tidyr     1.3.1
✔ purrr     1.1.0     
── Conflicts ────────────────────────────────────────── tidyverse_conflicts() ──
✖ dplyr::filter() masks stats::filter()
✖ dplyr::lag()    masks stats::lag()
ℹ Use the conflicted package (<http://conflicted.r-lib.org/>) to force all conflicts to become errors

starwars

# A tibble: 87 × 14
   name     height  mass hair_color skin_color eye_color birth_year sex   gender
   <chr>     <int> <dbl> <chr>      <chr>      <chr>          <dbl> <chr> <chr> 
 1 Luke Sk…    172    77 blond      fair       blue            19   male  mascu…
 2 C-3PO       167    75 <NA>       gold       yellow         112   none  mascu…
 3 R2-D2        96    32 <NA>       white, bl… red             33   none  mascu…
 4 Darth V…    202   136 none       white      yellow          41.9 male  mascu…
 5 Leia Or…    150    49 brown      light      brown           19   fema… femin…
 6 Owen La…    178   120 brown, gr… light      blue            52   male  mascu…
 7 Beru Wh…    165    75 brown      light      blue            47   fema… femin…
 8 R5-D4        97    32 <NA>       white, red red             NA   none  mascu…
 9 Biggs D…    183    84 black      light      brown           24   male  mascu…
10 Obi-Wan…    182    77 auburn, w… fair       blue-gray       57   male  mascu…
# ℹ 77 more rows
# ℹ 5 more variables: homeworld <chr>, species <chr>, films <list>,
#   vehicles <list>, starships <list>

Select

starwars |>
  select(name, mass, eye_color)

# A tibble: 87 × 3
   name                mass eye_color
   <chr>              <dbl> <chr>    
 1 Luke Skywalker        77 blue     
 2 C-3PO                 75 yellow   
 3 R2-D2                 32 red      
 4 Darth Vader          136 yellow   
 5 Leia Organa           49 brown    
 6 Owen Lars            120 blue     
 7 Beru Whitesun Lars    75 blue     
 8 R5-D4                 32 red      
 9 Biggs Darklighter     84 brown    
10 Obi-Wan Kenobi        77 blue-gray
# ℹ 77 more rows

starwars |>
  select (name:skin_color, species)

# A tibble: 87 × 6
   name               height  mass hair_color    skin_color  species
   <chr>               <int> <dbl> <chr>         <chr>       <chr>  
 1 Luke Skywalker        172    77 blond         fair        Human  
 2 C-3PO                 167    75 <NA>          gold        Droid  
 3 R2-D2                  96    32 <NA>          white, blue Droid  
 4 Darth Vader           202   136 none          white       Human  
 5 Leia Organa           150    49 brown         light       Human  
 6 Owen Lars             178   120 brown, grey   light       Human  
 7 Beru Whitesun Lars    165    75 brown         light       Human  
 8 R5-D4                  97    32 <NA>          white, red  Droid  
 9 Biggs Darklighter     183    84 black         light       Human  
10 Obi-Wan Kenobi        182    77 auburn, white fair        Human  
# ℹ 77 more rows

makes the table only those selected columns

starwars |>
  select(skin_color:name, species)

# A tibble: 87 × 6
   skin_color  hair_color     mass height name               species
   <chr>       <chr>         <dbl>  <int> <chr>              <chr>  
 1 fair        blond            77    172 Luke Skywalker     Human  
 2 gold        <NA>             75    167 C-3PO              Droid  
 3 white, blue <NA>             32     96 R2-D2              Droid  
 4 white       none            136    202 Darth Vader        Human  
 5 light       brown            49    150 Leia Organa        Human  
 6 light       brown, grey     120    178 Owen Lars          Human  
 7 light       brown            75    165 Beru Whitesun Lars Human  
 8 white, red  <NA>             32     97 R5-D4              Droid  
 9 light       black            84    183 Biggs Darklighter  Human  
10 fair        auburn, white    77    182 Obi-Wan Kenobi     Human  
# ℹ 77 more rows

This also reorders the columns

starwars |>
  select(-name)

# A tibble: 87 × 13
   height  mass hair_color    skin_color  eye_color birth_year sex    gender   
    <int> <dbl> <chr>         <chr>       <chr>          <dbl> <chr>  <chr>    
 1    172    77 blond         fair        blue            19   male   masculine
 2    167    75 <NA>          gold        yellow         112   none   masculine
 3     96    32 <NA>          white, blue red             33   none   masculine
 4    202   136 none          white       yellow          41.9 male   masculine
 5    150    49 brown         light       brown           19   female feminine 
 6    178   120 brown, grey   light       blue            52   male   masculine
 7    165    75 brown         light       blue            47   female feminine 
 8     97    32 <NA>          white, red  red             NA   none   masculine
 9    183    84 black         light       brown           24   male   masculine
10    182    77 auburn, white fair        blue-gray       57   male   masculine
# ℹ 77 more rows
# ℹ 5 more variables: homeworld <chr>, species <chr>, films <list>,
#   vehicles <list>, starships <list>

removes the columns following the -

starwars |>
  select(-(name:skin_color))

# A tibble: 87 × 9
   eye_color birth_year sex    gender homeworld species films vehicles starships
   <chr>          <dbl> <chr>  <chr>  <chr>     <chr>   <lis> <list>   <list>   
 1 blue            19   male   mascu… Tatooine  Human   <chr> <chr>    <chr [2]>
 2 yellow         112   none   mascu… Tatooine  Droid   <chr> <chr>    <chr [0]>
 3 red             33   none   mascu… Naboo     Droid   <chr> <chr>    <chr [0]>
 4 yellow          41.9 male   mascu… Tatooine  Human   <chr> <chr>    <chr [1]>
 5 brown           19   female femin… Alderaan  Human   <chr> <chr>    <chr [0]>
 6 blue            52   male   mascu… Tatooine  Human   <chr> <chr>    <chr [0]>
 7 blue            47   female femin… Tatooine  Human   <chr> <chr>    <chr [0]>
 8 red             NA   none   mascu… Tatooine  Droid   <chr> <chr>    <chr [0]>
 9 brown           24   male   mascu… Tatooine  Human   <chr> <chr>    <chr [1]>
10 blue-gray       57   male   mascu… Stewjon   Human   <chr> <chr>    <chr [5]>
# ℹ 77 more rows

select everything except the selection in parenthesis

starwars |>
  select(last_col(), name)

# A tibble: 87 × 2
   starships name              
   <list>    <chr>             
 1 <chr [2]> Luke Skywalker    
 2 <chr [0]> C-3PO             
 3 <chr [0]> R2-D2             
 4 <chr [1]> Darth Vader       
 5 <chr [0]> Leia Organa       
 6 <chr [0]> Owen Lars         
 7 <chr [0]> Beru Whitesun Lars
 8 <chr [0]> R5-D4             
 9 <chr [1]> Biggs Darklighter 
10 <chr [5]> Obi-Wan Kenobi    
# ℹ 77 more rows

will select last column and name

starwars |>
  select(everything())

# A tibble: 87 × 14
   name     height  mass hair_color skin_color eye_color birth_year sex   gender
   <chr>     <int> <dbl> <chr>      <chr>      <chr>          <dbl> <chr> <chr> 
 1 Luke Sk…    172    77 blond      fair       blue            19   male  mascu…
 2 C-3PO       167    75 <NA>       gold       yellow         112   none  mascu…
 3 R2-D2        96    32 <NA>       white, bl… red             33   none  mascu…
 4 Darth V…    202   136 none       white      yellow          41.9 male  mascu…
 5 Leia Or…    150    49 brown      light      brown           19   fema… femin…
 6 Owen La…    178   120 brown, gr… light      blue            52   male  mascu…
 7 Beru Wh…    165    75 brown      light      blue            47   fema… femin…
 8 R5-D4        97    32 <NA>       white, red red             NA   none  mascu…
 9 Biggs D…    183    84 black      light      brown           24   male  mascu…
10 Obi-Wan…    182    77 auburn, w… fair       blue-gray       57   male  mascu…
# ℹ 77 more rows
# ℹ 5 more variables: homeworld <chr>, species <chr>, films <list>,
#   vehicles <list>, starships <list>

selects everything. Is useful when trying to relocate one column

starwars |>
  select(ends_with("color"))

# A tibble: 87 × 3
   hair_color    skin_color  eye_color
   <chr>         <chr>       <chr>    
 1 blond         fair        blue     
 2 <NA>          gold        yellow   
 3 <NA>          white, blue red      
 4 none          white       yellow   
 5 brown         light       brown    
 6 brown, grey   light       blue     
 7 brown         light       blue     
 8 <NA>          white, red  red      
 9 black         light       brown    
10 auburn, white fair        blue-gray
# ℹ 77 more rows

selects all the columns that end with ‘color’ in the name

starwars |>
  select(starts_with("color"))

# A tibble: 87 × 0

selects all the columns that start with ‘color’ in the name

starwars |>
  select(contains("a"))

# A tibble: 87 × 5
   name                mass hair_color    birth_year starships
   <chr>              <dbl> <chr>              <dbl> <list>   
 1 Luke Skywalker        77 blond               19   <chr [2]>
 2 C-3PO                 75 <NA>               112   <chr [0]>
 3 R2-D2                 32 <NA>                33   <chr [0]>
 4 Darth Vader          136 none                41.9 <chr [1]>
 5 Leia Organa           49 brown               19   <chr [0]>
 6 Owen Lars            120 brown, grey         52   <chr [0]>
 7 Beru Whitesun Lars    75 brown               47   <chr [0]>
 8 R5-D4                 32 <NA>                NA   <chr [0]>
 9 Biggs Darklighter     84 black               24   <chr [1]>
10 Obi-Wan Kenobi        77 auburn, white       57   <chr [5]>
# ℹ 77 more rows

Doesn’t matter where in the name the keyword is, but will select any columns that contain that keyword

You can combine the various methods in order to select things

starwars |>
  select(matches("hair|birth"))

# A tibble: 87 × 2
   hair_color    birth_year
   <chr>              <dbl>
 1 blond               19  
 2 <NA>               112  
 3 <NA>                33  
 4 none                41.9
 5 brown               19  
 6 brown, grey         52  
 7 brown               47  
 8 <NA>                NA  
 9 black               24  
10 auburn, white       57  
# ℹ 77 more rows

matches allows you to use “or” expressions | . The above selects columns with either “hair” or “birth”. The lack of spaces is important here.

starwars |>
  select(where(is.numeric))

# A tibble: 87 × 3
   height  mass birth_year
    <int> <dbl>      <dbl>
 1    172    77       19  
 2    167    75      112  
 3     96    32       33  
 4    202   136       41.9
 5    150    49       19  
 6    178   120       52  
 7    165    75       47  
 8     97    32       NA  
 9    183    84       24  
10    182    77       57  
# ℹ 77 more rows

Selects only the numeric values; this selects columns by type.

starwars |>
  select(where(is.numeric))

# A tibble: 87 × 3
   height  mass birth_year
    <int> <dbl>      <dbl>
 1    172    77       19  
 2    167    75      112  
 3     96    32       33  
 4    202   136       41.9
 5    150    49       19  
 6    178   120       52  
 7    165    75       47  
 8     97    32       NA  
 9    183    84       24  
10    182    77       57  
# ℹ 77 more rows

starwars |>
  select(where(is.character))

# A tibble: 87 × 8
   name           hair_color skin_color eye_color sex   gender homeworld species
   <chr>          <chr>      <chr>      <chr>     <chr> <chr>  <chr>     <chr>  
 1 Luke Skywalker blond      fair       blue      male  mascu… Tatooine  Human  
 2 C-3PO          <NA>       gold       yellow    none  mascu… Tatooine  Droid  
 3 R2-D2          <NA>       white, bl… red       none  mascu… Naboo     Droid  
 4 Darth Vader    none       white      yellow    male  mascu… Tatooine  Human  
 5 Leia Organa    brown      light      brown     fema… femin… Alderaan  Human  
 6 Owen Lars      brown, gr… light      blue      male  mascu… Tatooine  Human  
 7 Beru Whitesun… brown      light      blue      fema… femin… Tatooine  Human  
 8 R5-D4          <NA>       white, red red       none  mascu… Tatooine  Droid  
 9 Biggs Darklig… black      light      brown     male  mascu… Tatooine  Human  
10 Obi-Wan Kenobi auburn, w… fair       blue-gray male  mascu… Stewjon   Human  
# ℹ 77 more rows

starwars |>
  select(where(is.logical))

# A tibble: 87 × 0

starwars |>
  select(where(is.Date))

# A tibble: 87 × 0

starwars |>
  select(where(is.list))

# A tibble: 87 × 3
   films     vehicles  starships
   <list>    <list>    <list>   
 1 <chr [5]> <chr [2]> <chr [2]>
 2 <chr [6]> <chr [0]> <chr [0]>
 3 <chr [7]> <chr [0]> <chr [0]>
 4 <chr [4]> <chr [0]> <chr [1]>
 5 <chr [5]> <chr [1]> <chr [0]>
 6 <chr [3]> <chr [0]> <chr [0]>
 7 <chr [3]> <chr [0]> <chr [0]>
 8 <chr [1]> <chr [0]> <chr [0]>
 9 <chr [1]> <chr [0]> <chr [1]>
10 <chr [6]> <chr [1]> <chr [5]>
# ℹ 77 more rows

All the types of data we will use.

starwars |>
  filter(height > 160) |>
  select(mass, name)

# A tibble: 67 × 2
    mass name              
   <dbl> <chr>             
 1    77 Luke Skywalker    
 2    75 C-3PO             
 3   136 Darth Vader       
 4   120 Owen Lars         
 5    75 Beru Whitesun Lars
 6    84 Biggs Darklighter 
 7    77 Obi-Wan Kenobi    
 8    84 Anakin Skywalker  
 9    NA Wilhuff Tarkin    
10   112 Chewbacca         
# ℹ 57 more rows

Filter before the select columns. In this case, selecting columns first does not include ‘height’ which is where the filter is put.

Rename

names(starwars) <- c("a", "b", "c", "d", "e", "f", "g", "h", "i", "j", "k", "l", "m", "n")

Rename ALL the columns. If there are 14 variables, you need 14 names. This is not scalable.

starwars |>
  rename(nombre = name, color_ojos = eye_color)

# A tibble: 87 × 14
   nombre  height  mass hair_color skin_color color_ojos birth_year sex   gender
   <chr>    <int> <dbl> <chr>      <chr>      <chr>           <dbl> <chr> <chr> 
 1 Luke S…    172    77 blond      fair       blue             19   male  mascu…
 2 C-3PO      167    75 <NA>       gold       yellow          112   none  mascu…
 3 R2-D2       96    32 <NA>       white, bl… red              33   none  mascu…
 4 Darth …    202   136 none       white      yellow           41.9 male  mascu…
 5 Leia O…    150    49 brown      light      brown            19   fema… femin…
 6 Owen L…    178   120 brown, gr… light      blue             52   male  mascu…
 7 Beru W…    165    75 brown      light      blue             47   fema… femin…
 8 R5-D4       97    32 <NA>       white, red red              NA   none  mascu…
 9 Biggs …    183    84 black      light      brown            24   male  mascu…
10 Obi-Wa…    182    77 auburn, w… fair       blue-gray        57   male  mascu…
# ℹ 77 more rows
# ℹ 5 more variables: homeworld <chr>, species <chr>, films <list>,
#   vehicles <list>, starships <list>

Renames only singular variables. Existing variable name should go second.

Relocate

starwars |>
  relocate(species, .after = mass)

# A tibble: 87 × 14
   name    height  mass species hair_color skin_color eye_color birth_year sex  
   <chr>    <int> <dbl> <chr>   <chr>      <chr>      <chr>          <dbl> <chr>
 1 Luke S…    172    77 Human   blond      fair       blue            19   male 
 2 C-3PO      167    75 Droid   <NA>       gold       yellow         112   none 
 3 R2-D2       96    32 Droid   <NA>       white, bl… red             33   none 
 4 Darth …    202   136 Human   none       white      yellow          41.9 male 
 5 Leia O…    150    49 Human   brown      light      brown           19   fema…
 6 Owen L…    178   120 Human   brown, gr… light      blue            52   male 
 7 Beru W…    165    75 Human   brown      light      blue            47   fema…
 8 R5-D4       97    32 Droid   <NA>       white, red red             NA   none 
 9 Biggs …    183    84 Human   black      light      brown           24   male 
10 Obi-Wa…    182    77 Human   auburn, w… fair       blue-gray       57   male 
# ℹ 77 more rows
# ℹ 5 more variables: gender <chr>, homeworld <chr>, films <list>,
#   vehicles <list>, starships <list>

relocates species to after mass

starwars |>
  relocate(species, .before = mass)

starwars |>
  relocate(species, gender, .before = everything())

# A tibble: 87 × 14
   species gender  name  height  mass hair_color skin_color eye_color birth_year
   <chr>   <chr>   <chr>  <int> <dbl> <chr>      <chr>      <chr>          <dbl>
 1 Human   mascul… Luke…    172    77 blond      fair       blue            19  
 2 Droid   mascul… C-3PO    167    75 <NA>       gold       yellow         112  
 3 Droid   mascul… R2-D2     96    32 <NA>       white, bl… red             33  
 4 Human   mascul… Dart…    202   136 none       white      yellow          41.9
 5 Human   femini… Leia…    150    49 brown      light      brown           19  
 6 Human   mascul… Owen…    178   120 brown, gr… light      blue            52  
 7 Human   femini… Beru…    165    75 brown      light      blue            47  
 8 Droid   mascul… R5-D4     97    32 <NA>       white, red red             NA  
 9 Human   mascul… Bigg…    183    84 black      light      brown           24  
10 Human   mascul… Obi-…    182    77 auburn, w… fair       blue-gray       57  
# ℹ 77 more rows
# ℹ 5 more variables: sex <chr>, homeworld <chr>, films <list>,
#   vehicles <list>, starships <list>

Puts the variables before everything.

The order of the data does not matter in R or Python. It only matters for human reading the data.

Modify/Create

starwars |>
  mutate(new_name = 1)

# A tibble: 87 × 15
   name     height  mass hair_color skin_color eye_color birth_year sex   gender
   <chr>     <int> <dbl> <chr>      <chr>      <chr>          <dbl> <chr> <chr> 
 1 Luke Sk…    172    77 blond      fair       blue            19   male  mascu…
 2 C-3PO       167    75 <NA>       gold       yellow         112   none  mascu…
 3 R2-D2        96    32 <NA>       white, bl… red             33   none  mascu…
 4 Darth V…    202   136 none       white      yellow          41.9 male  mascu…
 5 Leia Or…    150    49 brown      light      brown           19   fema… femin…
 6 Owen La…    178   120 brown, gr… light      blue            52   male  mascu…
 7 Beru Wh…    165    75 brown      light      blue            47   fema… femin…
 8 R5-D4        97    32 <NA>       white, red red             NA   none  mascu…
 9 Biggs D…    183    84 black      light      brown           24   male  mascu…
10 Obi-Wan…    182    77 auburn, w… fair       blue-gray       57   male  mascu…
# ℹ 77 more rows
# ℹ 6 more variables: homeworld <chr>, species <chr>, films <list>,
#   vehicles <list>, starships <list>, new_name <dbl>
…
